{
  "info": {
    "_postman_id": "55bbc5eb-7bcd-4165-b170-b30860bad487",
    "name": "Project Bajheera",
    "schema": "https://schema.getpostman.com/json/collection/v2.1.0/collection.json"
  },
  "item": [
    {
      "name": "Users",
      "request": {
        "method": "GET",
        "header": [],
        "url": {
          "raw": "http://localhost:4200/api/users",
          "protocol": "http",
          "host": ["localhost"],
          "port": "4200",
          "path": ["api", "users"]
        }
      },
      "response": []
    },
    {
      "name": "User by id",
      "request": {
        "method": "GET",
        "header": [],
        "url": {
          "raw": "http://localhost:4200/api/users/2",
          "protocol": "http",
          "host": ["localhost"],
          "port": "4200",
          "path": ["api", "users", "2"]
        }
      },
      "response": []
    }
  ]
}
